LOG:  could not receive data from client: An existing connection was forcibly closed by the remote host.
	
LOG:  could not receive data from client: An existing connection was forcibly closed by the remote host.
	
LOG:  could not receive data from client: An existing connection was forcibly closed by the remote host.
	
LOG:  could not receive data from client: An existing connection was forcibly closed by the remote host.
	
LOG:  could not receive data from client: An existing connection was forcibly closed by the remote host.
	
LOG:  could not receive data from client: An existing connection was forcibly closed by the remote host.
	
LOG:  received fast shutdown request
LOG:  aborting any active transactions
FATAL:  terminating connection due to administrator command
FATAL:  terminating connection due to administrator command
FATAL:  terminating connection due to administrator command
FATAL:  terminating connection due to administrator command
FATAL:  terminating connection due to administrator command
FATAL:  terminating connection due to administrator command
FATAL:  terminating connection due to administrator command
FATAL:  terminating connection due to administrator command
LOG:  autovacuum launcher shutting down
LOG:  shutting down
LOG:  database system is shut down
